[gd_resource type="Curve2D" format=2]

[resource]
_data = {
"points": PoolVector2Array( 0, 0, 0, 0, -16, 6, 0, 0, 0, 0, 464, 6, 0, 0, 0, 0, 464, 30, 0, 0, 0, 0, 16, 30, 0, 0, 0, 0, 16, 54, 0, 0, 0, 0, 464, 54, 0, 0, 0, 0, 464, 78, 0, 0, 0, 0, 16, 78, 0, 0, 0, 0, 16, 102, 0, 0, 0, 0, 464, 102, 0, 0, 0, 0, 464, 126, 0, 0, 0, 0, 16, 126, 0, 0, 0, 0, 16, 150, 0, 0, 0, 0, 464, 150, 0, 0, 0, 0, 464, 174, 0, 0, 0, 0, 16, 174, 0, 0, 0, 0, 16, 198, 0, 0, 0, 0, 464, 198, 0, 0, 0, 0, 464, 222, 0, 0, 0, 0, 16, 222, 0, 0, 0, 0, 16, 246, 0, 0, 0, 0, 464, 246, 0, 0, 0, 0, 464, 286 )
}
