[gd_scene load_steps=2 format=2]

[sub_resource type="Curve2D" id=1]
_data = {
"points": PoolVector2Array( 0, 0, 0, 0, -24, 8.05756, 0, 0, 0, 0, 302.471, 55.7862, -25.8119, 14.5576, 25.8119, -14.5576, 448, 64.4604, 21.7425, 11.7293, -21.7425, -11.7293, 448, 24.1727, 0, 0, 0, 0, 304, 56.4029, 0, 0, 0, 0, 96, 96.6907, 20.4737, 11.8967, -20.4737, -11.8967, 32, 96.6907, -18.7413, 12.8485, 18.7413, -12.8485, 32, 56.4029, 0, 0, 0, 0, 96, 56.4029, 0, 0, 0, 0, 288, 104.748, -20.0573, 19.3698, 20.0573, -19.3698, 448, 128.921, 17.6976, 15.5671, -17.6976, -15.5671, 448, 88.6331, 0, 0, 0, 0, 312, 112.806, 0, 0, 0, 0, 96, 161.151, 21.4057, 8.98322, -21.4057, -8.98322, 32, 161.151, -19.2611, 9.30611, 19.2611, -9.30611, 32, 120.863, 0, 0, 0, 0, 120, 128.921, 0, 0, 0, 0, 312, 177.266, -18.8151, 15.6685, 18.8151, -15.6685, 448, 193.381, 16.0821, 13.3394, -16.0821, -13.3394, 448, 153.094, 0, 0, 0, 0, 336, 169.209, 0, 0, 0, 0, 96, 225.612, 19.1227, 10.4955, -19.1227, -10.4955, 32, 225.612, -19.8179, 11.2933, 19.8179, -11.2933, 32, 185.324, 0, 0, 0, 0, 96, 185.324, 0, 0, 0, 0, 504, 257.842 )
}

[node name="Path2D" type="Path2D"]
scale = Vector2( 1, 0.992857 )
curve = SubResource( 1 )
