[gd_scene load_steps=2 format=2]

[ext_resource path="res://managers/audio_manager/audio_manager.gd" type="Script" id=2]

[node name="AudioManager" type="Node"]
script = ExtResource( 2 )

[node name="Intro Player" type="AudioStreamPlayer" parent="."]
volume_db = -20.0

[node name="Loop Player" type="AudioStreamPlayer" parent="."]
volume_db = -20.0

[node name="End Player" type="AudioStreamPlayer" parent="."]
volume_db = -20.0

[node name="SFX Channel 1" type="AudioStreamPlayer" parent="."]

[node name="SFX Channel 2" type="AudioStreamPlayer" parent="."]

[node name="SFX Channel 3" type="AudioStreamPlayer" parent="."]

[connection signal="finished" from="Intro Player" to="." method="_on_Intro_Player_finished"]
[connection signal="finished" from="Loop Player" to="." method="_on_Intro_Player_finished"]
[connection signal="finished" from="End Player" to="." method="_on_End_Player_finished"]
